\begin{tikzpicture}
	\tikzset{box/.style={%
		name=#1,
		draw,
		minimum height=30,
		text centered,
		font=\sffamily\scriptsize}
	}
	\tikzset{address/.style={%
		text ragged,
		font=\sffamily\scriptsize\itshape\tiny}
	}
	
	
	
	\node[box=segment,minimum height=10pt,fill=orange!30,minimum width=20,rectangle split, rectangle split parts=16,rectangle split horizontal,label=16-bit Segment Register] {};
	
	\node[box=segmentf,minimum height=10pt,fill=white!30,minimum width=20,rectangle split, rectangle split parts=4,rectangle split horizontal,right=0 pt of segment.east] {\nodepart{one} 0 \nodepart{two} 0 \nodepart{three}0 \nodepart{four}0};
	
	\node[left= 60 pt of segment.west] (SR) {CS,DS,SS,ES};
	
	\node[box=offset,below=40pt of segmentf.east,anchor= east,minimum height=10pt,fill=Fuchsia!30,minimum width=20,rectangle split, rectangle split parts=16,rectangle split horizontal,label=16-bit Offset Register] {};
	
	\node[below=40 pt of SR.west, anchor=west] {AX, BX, CX, DX, SP, BP, SI, DI};
	
	\node[box=offset,below=40pt of offset.east,anchor= east,minimum height=10pt,fill=Fuchsia!40!orange!40,minimum width=20,rectangle split, rectangle split parts=20,rectangle split horizontal,label=20 Bits Address] {};
	
	\node[anchor=south,yshift=9, xshift=-20] at ($(segmentf.south east)!0.50!(offset.north east)$) 
	{\Huge +};
	
	
\end{tikzpicture}
