\begin{tikzpicture}[ 
		every node/.style={fill=blue!30,rounded corners,font=\scriptsize\bfseries\ttfamily},
		every edge/.style={red,thick,draw},
		every graph/.style={%
			grow down,
			branch right, 
			sibling distance=9mm,
			level distance=9mm,
			layer distance=9mm,node sep=4mm
		},	
	]
% \draw[step=.5cm] (-2,-2) grid (2,2);
	\graph[spring layout] {%
			double->{byte, short, char, int, long,float}; %6
      float->{byte, short, char, int}; 
			long->{byte, short, char,int};
			float->long;
			short->{byte,char};
			char->{byte,short};
			int->{byte, short,char};
	};
\path[clip] (-1.5,-3.2)rectangle(2.3,0.3);
\end{tikzpicture}
