\begin{tikzpicture}
	\tikzset{box/.style={
		draw,
		inner sep=0pt,
		outer sep=0pt,
		anchor=south east,
		minimum height=3ex,
font=\normalsize
	}}
	\def\H{6ex}
	\def\W{6ex}
	\def\B{60ex}
	\node (A) [box,minimum width=\B,text height=\H,fill=green!20] {};
	\node at (A)  {\cc{\kk{return} nfact}};
	\node (B) [box,minimum width=0.5*\B,text height=3*\H,yshift=\H,fill=blue!20] {};
	\node (C) [box,minimum width=0.5*\B,text height=3*\H,yshift=\H,xshift=-0.5*\B,fill=red!20] {};
	\node at (C)  {\cc{nfact := 1}};
	\node (D)[box,minimum width=0.5*\B-\W,text height=\H,fill=yellow!20,yshift=\H]{};
	\node at (D)  {\cc{nfact := nfact+1}};
	\node (E)[box,minimum width=0.5*\B,text height=\H,fill=violet!20,yshift=3*\H]{};
	\node at (E)  {\cc{nfact := 2}};


 	\node at  ($(E.south west)!.50!(D.north west)$)[anchor=west] {\cc{\kk{do} i := 3 \kk{to} n}};

\node (F)[box,minimum width=\B,text height=2*\H,fill=teal!20,yshift=4*\H]{};

\draw (F.north west) -- (F.south) -- (F.south west) -- cycle [fill=purple!20];
\draw (F.north east) -- (F.south) -- (F.south east) -- cycle [fill=cyan!20];

 	\node at  ($(F.north)!0.80!(F)$) {\cc{is (n>1) ?}};
 	\node at  ($(F.south east)!0.30!(F.north)$) {\kk{yes}};
 	\node at  ($(F.south west)!0.30!(F.north)$) {\kk{no}};
\end{tikzpicture}
