\begin{tikzpicture}
\draw[gray] (-1.4,-1.4) grid (2.4,4.4);
\draw[->] (0.1,4.1) -- (1.1,4.1);
\draw[->,>= triangle 45] (0.1,3.1) -- (1.1,3.1);
\draw[->,>= triangle 45,shorten >=4pt] (0.1,2.1) -- (1.1,2.1);
\draw[->,>= triangle 45,shorten >=4pt] (0.1,1.1) -> (1.1,1.1);
\tikzset{my/.style={->,>= triangle 45,shorten >=4pt}}
\draw[my,red] (0.1,0.1) -- (1.1,0.1);
\end{tikzpicture}