\begin{tikzpicture}[/pgf/number format/int detect]
\tikzfading[name=arrowfading, top color=transparent!0, bottom color=transparent!95]

\tikzstyle{tortoise} = [single arrow,fill=brown!70!black, single arrow head extend=3pt,fill=black!70, shadow yshift=-0.8ex, path fading=arrowfading]
\tikzset{hare/.style={
	single arrow, font=\tiny,
	single arrow head extend=1,
	inner sep=2pt,
	draw=CarnationPink,
	left color=OrangeRed!50, 
	right color=Goldenrod,
	general shadow={fill=black, shadow yshift=-0.8ex, path fading=arrowfading}
}}



\pgfmathtruncatemacro{\N}{3}
\foreach \n in {1,2,...,\N}{
	\pgfmathparse{int(\N+1)}
    \relax {
        \draw (0,\n) node {\pgfmathresult node on slide {\number\numexpr\N+1\relax}};
    }
}
% \pgfmathparse{int(\N+1)}
% \onslide<\pgfmathresult>{
%     \draw (0,0) node {node on slide {\number\numexpr\N+1\relax}};
% }
% Draw our trail
\begin{scope}[
	decoration={
		markings,
		mark=between positions 0 and 1 step 0.071428571 with {
			\node [name=A\pgfkeysvalueof{/pgf/decoration/mark info/sequence number}] {};
		},
	}
]
\newcommand\I{%
	\pgfmathparse{%
		\pgfkeysvalueof{/pgf/decoration/mark info/sequence number} - 1%
	}%
	\pgfmathprintnumber{\pgfmathresult}%
}
\def\trail{
	(-3,0) 
	-- (-1,0) 
	arc [
		start angle=-120, 
		end angle=160, 
		x radius=2.5, 
		y radius=2,
	]
}
\path[postaction={decorate}] \trail ;
\end{scope}


\foreach \i/\j in {1/2,2/3,3/4,4/5,5/6,6/7,7/8,8/9,9/10,10/11,11/12,12/13,13/14,14/15,15/4} 
	\draw[->=stealth,shorten <=2pt,shorten >=5pt,] (A\i) -> (A\j);
\newcounter{n}
\setcounter{n}{0}
\foreach \i in {1,...,15} {
	\node[circle,fill=olive,text=white,inner sep=2.5pt] at (A\i) {\arabic{n}};
	\stepcounter{n}
}


                                                                                     	 	

\foreach \i/\j in {1/2,2/3,3/4,4/5,5/6,6/7,7/8,8/9,9/10,10/11,11/12,12/13,13/14,14/15,15/4}  {
\pgfmathanglebetweenpoints{\pgfpointanchor{A\i}{center}}{\pgfpointanchor{A\j}{center}}
	\node[tortoise,
	 rotate=\pgfmathresult,
	] at (A\i) {};
}

\foreach \i/\j in {1/2,2/3,3/4,4/5,5/6,6/7,7/8,8/9,9/10,10/11,11/12,12/13,13/14,14/15,15/4}  {
\pgfmathanglebetweenpoints{\pgfpointanchor{A\i}{center}}{\pgfpointanchor{A\j}{center}}
	\node[hare,
	 rotate=\pgfmathresult,
	] at (A\i) {};
}

\end{tikzpicture}
